## Game results collected from schedules available at
## https://www.collegehockeynews.com/schedules/ and/or
## https://www.collegehockeynews.com/schedules/composite.php
20071007 Ck 2 SL 3 NC
20071009 By 0 RP 4 NC
20071012 Ar 1 BS 2 NC
20071012 BU 2 RM 3 nc
20071012 Ca 0 SC 7 NC
20071012 FS 0 Un 2 NC
20071012 LS 2 MD 2 NC
20071012 MA 1 Ck 2 NC
20071012 Me 0 DU 2 NC
20071012 Mh 1 OS 2 nc
20071012 Mi 4 BC 3 nc
20071012 NM 3 MT 2 NC
20071012 Ni 2 Mr 4 NC
20071012 Pv 1 SL 4 NC
20071012 RP 3 Mn 4 nc
20071012 SH 2 Cg 6 NC
20071012 Vt 1 Mm 2 NC
20071012 WS 2 AA 5 NC
20071012 Wi 4 Nt 1 nc
20071013 Ar 0 BS 3 NC
20071013 BU 4 AA 4 NC
20071013 Ca 3 SC 3 NC
20071013 FS 1 Un 4 NC
20071013 MA 3 SL 1 NC
20071013 MS 0 ND 6 NC
20071013 Me 1 DU 3 NC
20071013 Mh 0 Nt 4 nc
20071013 Mi 3 Mn 4 nc
20071013 NM 0 MD 4 NC
20071013 Ni 6 HC 2 NC
20071013 Pv 0 Ck 2 NC
20071013 RP 1 BC 4 nc
20071013 RT 5 Cg 6 NC
20071013 Vt 1 Mm 4 NC
20071013 WS 1 RM 4 nc
20071013 Wi 3 OS 5 nc
20071014 LS 3 MT 4 NC
20071016 By 0 Qn 3 NC
20071018 BG 0 Ni 2 NC
20071018 DU 3 Nt 4 NC
20071019 AH 4 Ca 3 nc
20071019 AI 2 Ct 4 AH
20071019 Ak 3 AA 4 NC
20071019 BG 5 RT 3 NC
20071019 By 2 WM 5 NC
20071019 Cg 3 MS 6 NC
20071019 DU 3 Nt 1 NC
20071019 ML 2 MA 2 HE
20071019 Mh 2 Me 4 NC
20071019 Mi 3 NM 1 CC
20071019 Mk 0 MT 2 WC
20071019 Mm 5 OS 1 CC
20071019 Mn 1 CC 3 WC
20071019 Mr 3 BS 2 NC
20071019 ND 0 BC 0 NC
20071019 NH 4 BU 1 HE
20071019 Pv 2 NE 3 HE
20071019 Qn 1 AF 4 NC
20071019 RM 2 Wi 7 NC
20071019 RP 3 Ar 1 NC
20071019 SC 1 MD 2 WC
20071019 WS 2 FS 6 NC
20071020 AH 1 NO 5 NC
20071020 Ak 3 AA 5 NC
20071020 By 1 WM 3 NC
20071020 Cg 1 MS 2 NC
20071020 Ct 3 MA 4 NC
20071020 HC 6 Pv 4 NC
20071020 Mh 1 Me 4 NC
20071020 Mi 4 NM 3 CC
20071020 Mk 1 MT 7 WC
20071020 Mn 1 CC 2 WC
20071020 Mr 2 BS 1 NC
20071020 ND 3 NE 0 NC
20071020 Qn 1 AF 3 NC
20071020 RM 2 Wi 8 NC
20071020 SC 2 MD 4 WC
20071020 SH 0 RP 1 NC
20071020 SL 4 Ck 5 EC
20071020 WS 2 FS 2 NC
20071021 BC 3 Vt 3 HE
20071021 OS 1 Mm 5 CC
20071023 Nt 4 BG 2 CC
20071025 OS 1 Mn 3 NC
20071026 AF 0 By 4 AH
20071026 AH 1 ML 4 NC
20071026 BS 1 SC 2 NC
20071026 BU 2 Mi 4 NC
20071026 CC 3 NH 5 NC
20071026 Ca 4 SH 5 AH
20071026 Ck 4 LS 0 NC
20071026 HC 4 Mh 1 AH
20071026 MA 1 Pv 3 HE
20071026 MD 1 DU 5 WC
20071026 Me 3 NE 2 HE
20071026 Mk 2 AA 2 WC
20071026 Mr 1 BC 7 HE
20071026 ND 1 MT 3 WC
20071026 NM 4 MS 5 CC
20071026 NO 2 Mm 7 CC
20071026 Nt 3 FS 2 CC
20071026 OS 1 Mn 2 NC
20071026 Pn 6 Ya 2 NC
20071026 RP 3 Un 2 nc
20071026 SL 1 Cg 2 nc
20071026 WM 2 Ni 4 NC
20071026 WS 1 RM 3 CH
20071027 AF 3 By 1 AH
20071027 AH 1 ML 3 NC
20071027 Ar 4 Ct 1 AH
20071027 BS 1 SC 6 NC
20071027 BU 2 Mi 6 NC
20071027 Bn 0 Ya 2 NC
20071027 CC 2 NH 4 NC
20071027 Ca 2 SH 2 AH
20071027 Cg 0 RP 2 nc
20071027 Ck 1 LS 5 NC
20071027 Cr 1 RT 4 nc
20071027 HC 2 Mh 2 AH
20071027 MD 3 DU 0 WC
20071027 Me 4 NE 3 HE
20071027 Mk 2 AA 0 WC
20071027 ND 6 MT 0 WC
20071027 NM 2 MS 3 CC
20071027 NO 2 Mm 5 CC
20071027 Nt 0 FS 3 CC
20071027 Pv 3 MA 3 HE
20071027 SL 4 Un 0 nc
20071027 WM 1 Ni 3 NC
20071027 WS 1 RM 4 CH
20071028 BC 4 Mr 2 HE
20071028 Da 4 Vt 2 NC
20071030 AI 2 Qn 3 NC
20071101 BU 5 Pv 2 HE
20071101 LS 3 Nt 7 CC
20071101 Mr 3 ML 1 HE
20071102 AA 3 SC 5 WC
20071102 AI 1 By 1 AH
20071102 BG 3 WM 2 CC
20071102 Bn 2 Un 2 EC
20071102 CC 2 ND 6 WC
20071102 Ca 3 RT 4 AH
20071102 Ct 2 SH 4 AH
20071102 DU 5 Mn 1 WC
20071102 Da 2 SL 1 EC
20071102 FS 4 OS 0 CC
20071102 Ha 1 Ck 2 EC
20071102 LS 1 Nt 4 CC
20071102 MS 3 Ak 1 CC
20071102 MT 4 Wi 2 WC
20071102 Me 1 BC 1 HE
20071102 Mh 5 AF 3 AH
20071102 Mi 6 NO 3 CC
20071102 Mk 7 AH 0 NC
20071102 Mm 9 NM 2 CC
20071102 NH 7 NE 4 HE
20071102 Ni 3 BS 2 CH
20071102 Pn 3 Cr 2 EC
20071102 Qn 1 Cg 1 EC
20071102 Ya 1 RP 1 EC
20071103 AA 4 SC 4 WC
20071103 Ar 5 HC 2 AH
20071103 Bn 2 RP 2 EC
20071103 By 5 AI 1 AH
20071103 CC 4 ND 1 WC
20071103 Da 3 Ck 4 EC
20071103 Ha 6 SL 1 EC
20071103 ML 4 BU 7 HE
20071103 MS 3 Ak 1 CC
20071103 MT 2 Wi 4 WC
20071103 Mh 2 AF 6 AH
20071103 Mi 3 NO 2 CC
20071103 Mk 4 AH 2 NC
20071103 Mm 3 NM 2 CC
20071103 Mr 1 MA 5 HE
20071103 NE 2 NH 1 HE
20071103 Ni 0 BS 3 CH
20071103 Pn 2 Cg 0 EC
20071103 Qn 3 Cr 5 EC
20071103 RT 2 Ca 6 AH
20071103 SH 5 Ct 0 AH
20071103 WM 4 BG 5 CC
20071103 Ya 3 Un 3 EC
20071104 Ar 1 HC 3 AH
20071104 DU 4 Mn 1 WC
20071104 FS 4 OS 2 CC
20071106 SH 1 By 3 AH
20071108 NO 5 OS 2 CC
20071109 AF 2 RT 1 AH
20071109 Ak 0 Mi 4 CC
20071109 Ar 4 AI 3 AH
20071109 BG 6 FS 3 CC
20071109 BS 2 AH 0 CH
20071109 By 4 Ct 2 AH
20071109 Ca 2 HC 3 AH
20071109 Cg 2 Bn 5 EC
20071109 Ck 2 Qn 3 EC
20071109 Cr 2 Ya 1 EC
20071109 LS 3 WS 2 NC
20071109 MA 5 BU 3 HE
20071109 MD 3 CC 5 WC
20071109 ML 2 NH 2 HE
20071109 Mh 2 MS 6 NC
20071109 Mn 4 Mk 3 WC
20071109 Mr 3 BC 3 HE
20071109 ND 0 Wi 4 WC
20071109 NO 5 OS 2 CC
20071109 Ni 4 RM 0 CH
20071109 Nt 2 Mm 1 CC
20071109 Pv 6 Me 2 HE
20071109 RP 0 Ha 3 EC
20071109 SC 5 MT 2 WC
20071109 SL 4 Pn 3 EC
20071109 Un 0 Da 4 EC
20071109 Vt 2 NE 4 HE
20071109 WM 4 NM 2 CC
20071110 AF 3 RT 4 AH
20071110 AI 1 Ar 7 AH
20071110 Ak 2 Mi 4 CC
20071110 BC 2 NH 5 HE
20071110 BG 3 FS 1 CC
20071110 BS 3 AH 3 CH
20071110 BU 2 NE 2 HE
20071110 Ca 4 HC 2 AH
20071110 Ck 6 Pn 2 EC
20071110 Cr 4 Bn 1 EC
20071110 Ct 3 By 2 AH
20071110 LS 1 WS 2 NC
20071110 MA 3 ML 3 HE
20071110 MD 0 CC 3 WC
20071110 Mh 2 MS 6 NC
20071110 Mk 3 Mn 5 WC
20071110 ND 3 Wi 1 WC
20071110 Ni 2 RM 4 CH
20071110 Nt 1 Mm 3 CC
20071110 Pv 1 Me 0 HE
20071110 RP 7 Da 4 EC
20071110 SC 4 MT 1 WC
20071110 SL 2 Qn 2 EC
20071110 Un 0 Ha 4 EC
20071110 Vt 2 Mr 1 HE
20071110 WM 3 NM 4 CC
20071111 Cg 4 Ya 6 EC
20071115 Mm 4 MS 2 CC
20071116 AA 0 Mn 3 WC
20071116 BC 1 MA 1 HE
20071116 BS 3 WS 1 CH
20071116 BU 9 Vt 1 HE
20071116 Bn 4 SL 4 EC
20071116 By 2 Ar 7 AH
20071116 Ca 1 AI 3 AH
20071116 Cg 3 Da 3 EC
20071116 Cr 1 Ha 2 EC
20071116 Ct 2 AF 3 AH
20071116 FS 5 NO 1 CC
20071116 ML 2 Pv 2 HE
20071116 MT 1 MD 1 WC
20071116 Me 1 Mr 5 HE
20071116 Mh 6 RT 3 AH
20071116 Mi 5 LS 1 CC
20071116 Mk 1 DU 2 WC
20071116 Mm 3 MS 1 CC
20071116 NE 4 NH 1 HE
20071116 NM 2 BG 4 CC
20071116 OS 5 RM 5 nc
20071116 SH 2 Ni 4 NC
20071116 WM 1 Nt 4 CC
20071116 Wi 3 CC 4 WC
20071116 Ya 0 Ck 1 EC
20071117 AA 4 Mn 2 WC
20071117 BS 2 WS 5 CH
20071117 BU 4 Vt 5 HE
20071117 Bn 2 Ck 4 EC
20071117 By 3 Ar 2 AH
20071117 Ca 2 AI 4 AH
20071117 Cg 2 Ha 1 EC
20071117 Cr 4 Da 1 EC
20071117 Ct 3 AF 2 AH
20071117 MA 3 BC 2 HE
20071117 ML 1 NE 2 HE
20071117 MT 1 MD 4 WC
20071117 Me 1 Mr 2 HE
20071117 Mh 2 RT 3 AH
20071117 Mi 6 LS 2 CC
20071117 Mk 0 DU 7 WC
20071117 NH 5 Pv 4 HE
20071117 NM 3 BG 2 CC
20071117 Nt 5 WM 1 CC
20071117 Pn 0 Qn 4 NC
20071117 SH 1 Ni 3 NC
20071117 Wi 1 CC 6 WC
20071117 Ya 3 SL 2 EC
20071118 FS 0 NO 2 CC
20071118 RM 4 OS 3 NC
20071120 BG 1 Nt 2 CC
20071120 Ha 2 BU 1 NC
20071120 MA 2 Vt 4 HE
20071120 ML 3 Mr 0 HE
20071121 Qn 5 Pn 2 EC
20071123 AH 1 Nt 4 nc
20071123 AI 1 RP 1 NC
20071123 Ak 3 NO 4 CC
20071123 Ar 2 RT 2 AH
20071123 Ca 0 Mm 4 NC
20071123 Ct 1 Cg 7 NC
20071123 DU 1 CC 5 WC
20071123 HC 1 AF 3 AH
20071123 LS 2 NM 4 CC
20071123 MD 3 ND 8 WC
20071123 Mn 3 MS 3 NC
20071123 NE 4 BC 3 HE
20071123 OS 2 WM 4 CC
20071123 SC 4 Ck 1 NC
20071123 SH 3 Mh 2 AH
20071123 WS 3 SL 2 NC
20071123 Wi 2 Mi 3 NC
20071124 AH 5 AI 3 nc
20071124 Ak 4 NO 4 CC
20071124 Ar 1 RT 1 AH
20071124 Bn 2 NH 5 NC
20071124 By 1 Da 5 NC
20071124 CC 2 DU 3 WC
20071124 Ca 1 Mm 11 NC
20071124 Cr 3 BU 6 nc
20071124 Ct 2 Cg 1 NC
20071124 HC 5 AF 5 AH
20071124 MD 4 ND 2 WC
20071124 Mn 1 Mi 5 NC
20071124 Mr 2 ML 6 HE
20071124 NM 3 LS 1 CC
20071124 Nt 4 RP 3 NC
20071124 OS 3 WM 0 CC
20071124 Pn 4 Qn 2 EC
20071124 SC 2 Ck 3 NC
20071124 SH 2 Mh 2 AH
20071124 WS 2 SL 2 NC
20071124 Wi 4 MS 4 NC
20071125 Un 2 MA 5 NC
20071125 Vt 5 Me 5 HE
20071128 Ha 3 Ya 3 EC
20071130 AF 6 AI 3 AH
20071130 BG 3 WS 1 NC
20071130 BS 5 Ni 1 CH
20071130 BU 2 BC 6 HE
20071130 Bn 3 NE 4 NC
20071130 CC 1 AA 0 WC
20071130 HC 4 Ct 1 AH
20071130 MA 0 Cr 0 NC
20071130 MD 2 Mk 2 WC
20071130 ML 2 NH 3 HE
20071130 MS 3 LS 2 CC
20071130 MT 3 Mn 2 WC
20071130 Mh 0 Ca 4 AH
20071130 ND 0 DU 1 WC
20071130 NM 1 Ak 4 CC
20071130 NO 4 Nt 5 CC
20071130 OS 3 Mi 2 CC
20071130 RP 4 Pn 3 EC
20071130 RT 3 By 2 AH
20071130 SC 2 Wi 3 WC
20071130 SH 2 Ar 4 AH
20071130 Un 4 Qn 3 EC
20071130 WM 0 FS 4 CC
20071201 AF 4 AI 2 AH
20071201 Ar 2 SH 4 AH
20071201 BC 4 BU 3 HE
20071201 BS 2 Ni 2 CH
20071201 CC 4 AA 1 WC
20071201 Ca 2 Mh 5 AH
20071201 Ck 2 SL 4 EC
20071201 Ct 3 HC 3 AH
20071201 Da 0 Ha 1 EC
20071201 FS 3 WM 2 CC
20071201 MD 1 Mk 2 WC
20071201 MS 5 LS 2 CC
20071201 MT 1 Mn 3 WC
20071201 ND 3 DU 1 WC
20071201 NH 2 ML 3 HE
20071201 NM 4 Ak 2 CC
20071201 NO 0 Nt 5 CC
20071201 OS 2 Mi 4 CC
20071201 Pv 4 Vt 0 HE
20071201 RM 3 Cg 4 NC
20071201 RP 2 Qn 3 EC
20071201 RT 2 By 2 AH
20071201 SC 3 Wi 4 WC
20071201 Un 3 Pn 4 EC
20071201 WS 1 BG 6 NC
20071202 RM 0 Cg 5 NC
20071204 Bn 0 Pv 8 NC
20071204 Ct 1 AI 4 AH
20071204 Ha 2 RP 4 EC
20071204 Mr 2 HC 2 NC
20071205 SH 6 By 5 AH
20071207 AA 3 MD 3 WC
20071207 AH 1 BS 4 CH
20071207 Ak 1 Mm 3 CC
20071207 BU 3 ML 4 HE
20071207 Ca 3 AF 3 AH
20071207 DU 3 SC 2 WC
20071207 LS 1 NO 1 CC
20071207 MS 4 FS 3 CC
20071207 Mi 4 BG 2 CC
20071207 Mn 2 ND 4 WC
20071207 Nt 4 Pn 2 NC
20071207 Qn 4 RM 2 NC
20071207 RT 1 AI 4 AH
20071207 SL 2 OS 3 NC
20071207 Un 2 Pv 5 NC
20071207 WS 2 WM 5 NC
20071207 Wi 1 Mk 3 WC
20071208 AA 5 MD 3 WC
20071208 AH 0 BS 2 CH
20071208 Ak 3 Mm 0 CC
20071208 BG 2 Mi 3 CC
20071208 Bn 1 Ya 2 EC
20071208 By 1 ML 4 NC
20071208 Ca 3 AF 3 AH
20071208 DU 3 SC 2 WC
20071208 FS 1 MS 4 CC
20071208 Ha 2 Vt 2 NC
20071208 LS 3 NO 3 CC
20071208 Mn 4 ND 3 WC
20071208 Mr 1 Me 3 HE
20071208 NE 1 Un 1 NC
20071208 NH 1 MA 4 HE
20071208 Nt 7 Pn 0 NC
20071208 Qn 5 RM 1 NC
20071208 RT 5 AI 0 AH
20071208 SL 5 OS 4 NC
20071208 WS 1 WM 5 NC
20071208 Wi 1 Mk 1 WC
20071212 BC 7 Ha 2 NC
20071214 AI 4 Mh 5 AH
20071214 CC 3 SC 1 WC
20071214 DU 4 AA 3 WC
20071214 MT 1 NM 1 NC
20071214 Mk 4 BS 3 NC
20071214 NO 2 Un 3 NC
20071214 OS 1 Ak 2 CC
20071214 WS 2 Ni 4 CH
20071215 AI 1 Mh 2 AH
20071215 CC 2 SC 4 WC
20071215 DU 6 AA 2 WC
20071215 Mk 1 BS 0 NC
20071215 Mm 7 RP 3 NC
20071215 NM 2 MT 0 NC
20071215 NO 4 Un 2 NC
20071215 OS 2 Ak 2 CC
20071215 SL 3 Vt 4 NC
20071215 WS 1 Ni 2 CH
20071216 Me 0 NH 2 HE
20071216 Mm 5 RP 1 NC
20071217 RM 7 AH 1 CH
20071218 Mk 3 NO 6 NC
20071218 RM 4 AH 4 CH
20071228 AA 4 Ak 2 NC
20071228 Cg 2 Wi 2 NC
20071228 Ck 3 Me 5 nc
20071228 ML 3 Cr 2 nc
20071228 MS 1 MT 4 nc
20071228 NE 4 BG 3 nc
20071228 NH 1 ND 3 NC
20071228 NM 1 Da 4 nc
20071228 Pn 1 Mk 6 NC
20071228 Pv 0 Mi 6 nc
20071228 SH 0 DU 5 NC
20071228 Ya 6 NO 3 NC
20071229 AA 2 Ak 2 NC
20071229 Ar 1 Ct 4 AH
20071229 BC 8 AF 2 nc
20071229 BG 3 Wi 5 NC
20071229 Bn 1 FS 2 nc
20071229 Cg 1 NE 2 nc
20071229 Ck 3 Cr 3 nc
20071229 Da 3 DU 5 NC
20071229 HC 1 Vt 1 NC
20071229 Ha 2 OS 4 NC
20071229 MA 4 Nt 3 nc
20071229 ML 6 Me 0 nc
20071229 Mi 1 MT 0 nc
20071229 NH 7 ND 4 NC
20071229 NM 5 SH 2 nc
20071229 Pv 5 MS 3 nc
20071229 RP 2 CC 3 nc
20071229 RT 4 Mn 3 NC
20071229 SC 1 Mm 2 nc
20071229 WM 1 Qn 2 nc
20071230 AF 2 Mn 2 NC
20071230 Bn 1 Ar 1 nc
20071230 FS 5 Ct 0 NC
20071230 MA 5 CC 4 nc
20071230 Mm 3 OS 2 NC
20071230 Mr 2 BU 5 HE
20071230 Ni 3 Ca 4 NC
20071230 Pn 5 NO 3 NC
20071230 Qn 4 Vt 1 NC
20071230 RP 1 Nt 3 nc
20071230 RT 0 BC 6 nc
20071230 SC 4 Ha 1 nc
20071230 WM 1 HC 1 nc
20071230 Ya 1 Mk 4 NC
20080102 Ct 1 Ya 9 NC
20080104 AF 1 SH 2 AH
20080104 Ak 4 OS 2 CC
20080104 BS 3 MD 5 NC
20080104 By 1 Ca 1 AH
20080104 CC 2 Wi 0 WC
20080104 Ct 1 Un 4 NC
20080104 Da 2 Pn 5 EC
20080104 Ha 3 Qn 3 EC
20080104 LS 2 MS 8 CC
20080104 MT 3 Mh 2 NC
20080104 Mm 2 BG 4 CC
20080104 ND 2 SC 3 WC
20080104 NE 7 Me 3 HE
20080104 NH 1 Mr 0 HE
20080104 Ni 0 Cr 6 NC
20080104 Nt 1 NM 2 CC
20080104 RM 10 AI 2 NC
20080104 RT 5 HC 2 AH
20080104 WS 1 Mn 5 NC
20080105 AF 3 SH 1 AH
20080105 Ak 2 OS 5 CC
20080105 BC 2 Ck 4 NC
20080105 By 1 Ca 4 AH
20080105 CC 3 Wi 1 WC
20080105 Ha 1 Pn 2 EC
20080105 LS 3 MS 3 CC
20080105 MD 0 BS 2 NC
20080105 MT 5 Mh 1 NC
20080105 Mm 5 BG 2 CC
20080105 ND 6 SC 2 WC
20080105 NO 6 WM 3 CC
20080105 Ni 3 Cr 4 NC
20080105 Nt 2 NM 1 CC
20080105 RM 6 AI 3 NC
20080105 RT 5 HC 1 AH
20080105 Un 3 Ar 2 NC
20080105 Vt 2 BU 2 HE
20080105 WS 2 Mn 5 NC
20080105 Ya 3 Bn 2 EC
20080106 Ar 1 Mr 4 NC
20080106 Da 3 Qn 5 EC
20080106 NO 4 WM 2 CC
20080106 RP 2 Me 4 nc
20080106 SL 6 NH 5 NC
20080108 HC 2 AI 3 AH
20080109 Vt 1 BC 4 HE
20080111 AA 1 CC 6 WC
20080111 AI 4 SH 5 AH
20080111 Ak 4 FS 3 CC
20080111 Ar 0 Mh 3 AH
20080111 BG 4 LS 2 CC
20080111 BS 4 AH 0 CH
20080111 By 6 HC 4 AH
20080111 Cg 4 Un 5 EC
20080111 Ck 1 Da 3 EC
20080111 Cr 2 RP 1 EC
20080111 Ct 3 Ca 1 AH
20080111 ML 3 Pv 4 HE
20080111 MT 1 ND 4 WC
20080111 Mk 3 MD 4 WC
20080111 Mm 6 NO 3 CC
20080111 NE 2 Mr 4 HE
20080111 NH 3 MA 2 HE
20080111 Nt 1 MS 3 CC
20080111 Pn 4 Ya 3 EC
20080111 Qn 6 Bn 3 EC
20080111 RM 2 Ni 7 CH
20080111 RT 2 AF 5 AH
20080111 SC 3 Mn 1 WC
20080111 SL 3 Ha 1 EC
20080111 Vt 2 BC 5 HE
20080111 WM 1 Mi 6 CC
20080111 WS 4 NM 1 NC
20080111 Wi 2 DU 3 WC
20080112 AA 2 CC 5 WC
20080112 AI 2 SH 2 AH
20080112 Ak 2 FS 2 CC
20080112 Ar 2 Mh 4 AH
20080112 BG 1 LS 4 CC
20080112 BS 7 AH 1 CH
20080112 BU 3 Me 1 HE
20080112 By 2 HC 4 AH
20080112 Cg 4 RP 0 EC
20080112 Ck 4 Ha 2 EC
20080112 Cr 1 Un 2 EC
20080112 Ct 0 Ca 4 AH
20080112 MA 3 NH 5 HE
20080112 MT 1 ND 4 WC
20080112 Mi 5 WM 1 CC
20080112 Mk 2 MD 2 WC
20080112 Mm 4 NO 1 CC
20080112 Mn 4 SC 4 WC
20080112 Mr 0 NE 3 HE
20080112 Pn 6 Bn 2 EC
20080112 Pv 2 ML 3 HE
20080112 Qn 3 Ya 0 EC
20080112 RM 7 Ni 2 CH
20080112 RT 4 AF 3 AH
20080112 WS 3 NM 2 NC
20080112 Wi 7 DU 2 WC
20080113 MS 1 Nt 1 CC
20080113 SL 8 Da 3 EC
20080115 Da 3 BU 2 NC
20080115 HC 5 AI 3 AH
20080118 BC 5 ML 4 HE
20080118 BS 4 CC 5 NC
20080118 BU 6 Mr 4 HE
20080118 Ca 3 Ar 0 AH
20080118 Ck 1 Cg 1 EC
20080118 DU 2 AF 5 NC
20080118 LS 1 Mm 6 CC
20080118 MA 2 Pv 3 HE
20080118 MS 4 OS 1 CC
20080118 Mh 3 Ct 3 AH
20080118 Mn 1 MD 1 WC
20080118 ND 2 Mk 1 WC
20080118 NE 2 Vt 2 HE
20080118 NM 2 FS 3 CC
20080118 NO 3 Ak 1 CC
20080118 Ni 3 WS 2 CH
20080118 Nt 2 Mi 3 CC
20080118 RP 1 Un 2 EC
20080118 SH 2 RT 4 AH
20080118 SL 1 Cr 3 EC
20080118 WM 1 BG 4 CC
20080118 Wi 2 AA 1 WC
20080118 Ya 3 AH 2 NC
20080119 AF 1 CC 2 NC
20080119 BG 2 WM 1 CC
20080119 BS 2 DU 4 NC
20080119 BU 2 BC 2 HE
20080119 Ca 1 Ar 2 AH
20080119 Da 5 NH 3 nc
20080119 LS 0 Mm 5 CC
20080119 MA 1 ML 3 HE
20080119 MS 4 OS 0 CC
20080119 Me 4 Pv 0 HE
20080119 Mh 2 Ct 3 AH
20080119 Mi 5 Nt 1 cc
20080119 Mn 2 MD 1 WC
20080119 ND 5 Mk 3 WC
20080119 NE 2 Vt 5 HE
20080119 NM 4 FS 1 CC
20080119 NO 4 Ak 3 CC
20080119 Ni 6 WS 5 ch
20080119 Qn 5 HC 2 NC
20080119 SH 2 RT 4 AH
20080119 SL 1 Cg 4 EC
20080119 Un 4 RP 1 EC
20080119 Wi 4 AA 4 WC
20080119 Ya 2 AH 3 NC
20080120 Ck 4 Cr 2 EC
20080120 Mr 4 Bn 3 NC
20080125 AA 1 ND 3 WC
20080125 AF 1 Ar 2 AH
20080125 AH 0 WS 2 CH
20080125 BC 3 Me 3 HE
20080125 BG 1 Nt 6 CC
20080125 BU 2 NH 4 HE
20080125 Bn 1 Cr 4 EC
20080125 CC 2 MT 2 WC
20080125 FS 3 WM 4 CC
20080125 HC 1 SH 5 AH
20080125 MD 1 ML 0 NC
20080125 MS 1 Mi 0 CC
20080125 Mh 3 By 3 AH
20080125 Mm 2 Ak 0 CC
20080125 Mn 1 Wi 3 WC
20080125 Ni 5 Qn 1 NC
20080125 OS 4 LS 3 CC
20080125 Pv 5 NE 1 HE
20080125 RM 2 BS 2 CH
20080125 RP 2 Ck 5 EC
20080125 RT 0 Ct 3 AH
20080125 SC 3 Mk 5 WC
20080125 Un 3 SL 1 EC
20080125 Vt 5 MA 4 HE
20080125 Ya 6 Cg 1 EC
20080126 AA 1 ND 3 WC
20080126 AH 3 WS 4 CH
20080126 BC 4 Me 2 HE
20080126 Bn 0 Cg 5 EC
20080126 CC 2 MT 5 WC
20080126 Ca 0 Mr 4 NC
20080126 Ha 3 Da 1 EC
20080126 MD 4 ML 1 NC
20080126 Mh 3 By 3 AH
20080126 Mi 2 MS 2 CC
20080126 Mk 5 SC 3 WC
20080126 Mm 7 Ak 2 CC
20080126 Mn 2 Wi 2 WC
20080126 NE 2 Pv 5 HE
20080126 NH 5 BU 3 HE
20080126 Ni 5 Qn 3 NC
20080126 Nt 4 BG 1 CC
20080126 OS 5 LS 6 CC
20080126 RM 0 BS 4 CH
20080126 RP 6 SL 3 EC
20080126 RT 1 Ct 1 AH
20080126 SH 2 HC 4 AH
20080126 Un 2 Ck 3 EC
20080126 Vt 2 MA 2 HE
20080126 WM 3 FS 3 CC
20080126 Ya 2 Cr 2 EC
20080127 AF 1 Ar 2 AH
20080127 AI 3 Da 3 NC
20080129 Pn 5 RM 2 NC
20080201 AH 7 RM 5 CH
20080201 AI 3 RT 1 AH
20080201 BG 5 OS 2 CC
20080201 By 4 AF 4 AH
20080201 Cg 1 Cr 2 EC
20080201 Ck 2 CC 5 NC
20080201 Ct 1 Ar 3 AH
20080201 DU 1 Mk 5 WC
20080201 Da 3 Ya 6 EC
20080201 FS 2 LS 3 CC
20080201 Ha 2 Bn 4 EC
20080201 MA 0 NE 1 HE
20080201 MD 1 Wi 3 WC
20080201 MT 0 AA 4 WC
20080201 Me 2 ML 3 HE
20080201 Mh 6 HC 3 AH
20080201 Mr 1 BU 4 HE
20080201 ND 2 Mn 1 WC
20080201 NH 5 Vt 1 HE
20080201 NM 3 Mi 3 CC
20080201 NO 5 MS 4 CC
20080201 Pn 3 Un 4 EC
20080201 Pv 3 BC 2 HE
20080201 Qn 3 RP 2 EC
20080201 SH 7 Ca 3 AH
20080201 WM 2 Ak 3 CC
20080201 WS 3 BS 2 CH
20080202 AH 2 RM 5 CH
20080202 AI 2 RT 5 AH
20080202 BG 2 OS 4 CC
20080202 By 1 AF 3 AH
20080202 Ck 1 CC 6 NC
20080202 Cr 3 Cg 1 EC
20080202 Ct 0 Ar 6 AH
20080202 DU 2 Mk 3 WC
20080202 Da 3 Bn 4 EC
20080202 FS 1 LS 1 CC
20080202 MD 2 Wi 1 WC
20080202 MT 2 AA 2 WC
20080202 Me 3 MA 5 HE
20080202 Mh 2 HC 1 AH
20080202 ND 1 Mn 1 WC
20080202 NM 3 Mi 3 CC
20080202 NO 2 MS 4 CC
20080202 Pn 4 RP 0 EC
20080202 Pv 1 Mr 1 HE
20080202 Qn 3 Un 3 EC
20080202 SH 2 Ca 4 AH
20080202 SL 4 Ni 4 NC
20080202 WM 2 Ak 3 CC
20080202 WS 3 BS 4 CH
20080203 ML 2 Vt 3 HE
20080204 BU 3 BC 4 nc
20080204 Ha 3 NE 1 nc
20080208 AA 1 Mk 3 WC
20080208 AF 1 Mh 3 AH
20080208 AH 2 Ni 2 CH
20080208 Ak 2 BG 4 CC
20080208 BC 4 MA 1 HE
20080208 BU 6 ML 2 HE
20080208 Bn 2 Pn 3 EC
20080208 By 2 AI 5 AH
20080208 Cg 2 SL 1 EC
20080208 Cr 1 Ck 4 EC
20080208 Da 4 RP 4 EC
20080208 FS 5 Nt 3 CC
20080208 HC 0 Ar 2 AH
20080208 Ha 3 Un 2 EC
20080208 LS 3 WM 3 CC
20080208 MS 1 NM 3 CC
20080208 Mi 4 Mm 2 CC
20080208 Mn 1 DU 1 WC
20080208 NE 4 Mr 2 HE
20080208 NH 3 Me 2 HE
20080208 OS 3 NO 3 CC
20080208 RM 3 WS 1 CH
20080208 SC 3 CC 5 WC
20080208 SH 6 Ct 4 AH
20080208 Vt 2 Pv 1 HE
20080208 Wi 1 MT 1 WC
20080208 Ya 1 Qn 5 EC
20080209 AA 2 Mk 4 WC
20080209 AF 7 Mh 0 AH
20080209 AH 0 Ni 5 CH
20080209 AI 6 By 5 AH
20080209 Ak 4 BG 1 CC
20080209 Ca 1 RT 4 AH
20080209 Cg 0 Ck 0 EC
20080209 Cr 2 SL 4 EC
20080209 Ct 0 SH 4 AH
20080209 Da 0 Un 0 EC
20080209 FS 2 Nt 2 CC
20080209 HC 1 Ar 1 AH
20080209 LS 3 WM 2 CC
20080209 MS 0 NM 3 CC
20080209 Mi 5 Mm 5 CC
20080209 Mn 1 DU 4 WC
20080209 NH 4 Me 1 HE
20080209 OS 2 NO 5 CC
20080209 RM 4 WS 3 CH
20080209 SC 4 CC 2 WC
20080209 Vt 3 Pv 4 HE
20080209 Wi 4 MT 1 WC
20080209 Ya 2 Pn 4 EC
20080210 Bn 0 Qn 3 EC
20080210 RT 4 Ca 5 AH
20080211 Ha 5 BC 6 nc
20080211 NE 4 BU 5 nc
20080215 AI 0 Ar 4 AH
20080215 BG 3 NO 5 CC
20080215 BS 1 RM 4 CH
20080215 Ck 4 Bn 3 EC
20080215 Ct 0 By 6 AH
20080215 DU 4 ND 5 WC
20080215 LS 2 Mi 4 CC
20080215 MA 1 NE 2 HE
20080215 MD 2 MT 5 WC
20080215 ML 3 BC 1 HE
20080215 Me 1 BU 2 HE
20080215 Mh 4 SH 3 AH
20080215 Mk 3 Wi 0 WC
20080215 Mm 5 FS 6 CC
20080215 Mr 1 Vt 4 HE
20080215 NH 1 Pv 1 HE
20080215 NM 2 OS 0 CC
20080215 Nt 2 Ak 1 CC
20080215 Pn 2 Ha 3 EC
20080215 Qn 2 Da 7 EC
20080215 RP 0 Cg 4 EC
20080215 SC 3 AA 1 WC
20080215 SL 3 Ya 4 EC
20080215 Un 3 Cr 2 EC
20080215 WM 0 MS 3 CC
20080216 Ar 4 AI 0 AH
20080216 BC 5 ML 2 HE
20080216 BG 3 NO 1 CC
20080216 BS 7 RM 2 CH
20080216 By 4 Ct 3 AH
20080216 Ck 2 Ya 5 EC
20080216 DU 1 ND 4 WC
20080216 HC 3 Ca 2 AH
20080216 LS 2 Mi 4 CC
20080216 MD 3 MT 2 WC
20080216 MS 4 WM 2 CC
20080216 Me 0 BU 1 HE
20080216 Mh 3 SH 6 AH
20080216 Mk 2 Wi 4 WC
20080216 Mm 1 FS 3 CC
20080216 Mr 1 Vt 2 HE
20080216 NE 1 MA 3 HE
20080216 NM 2 OS 3 CC
20080216 Ni 3 RT 3 NC
20080216 Nt 1 Ak 1 CC
20080216 Pn 5 Da 2 EC
20080216 Pv 3 NH 4 HE
20080216 Qn 1 Ha 4 EC
20080216 RP 1 Cr 7 EC
20080216 SC 2 AA 1 WC
20080216 SL 1 Bn 3 EC
20080216 Un 0 Cg 8 EC
20080216 WS 4 AH 2 CH
20080217 HC 1 Ca 2 AH
20080217 WS 2 AH 5 CH
20080222 AA 2 DU 4 WC
20080222 AF 3 Ca 0 AH
20080222 AI 2 Ct 4 AH
20080222 Ak 1 LS 2 CC
20080222 Ar 1 By 2 AH
20080222 BU 7 NE 4 HE
20080222 Bn 5 Da 4 EC
20080222 CC 3 MD 0 WC
20080222 Cg 2 Pn 7 EC
20080222 Ck 3 Un 3 EC
20080222 Cr 3 Qn 2 EC
20080222 FS 2 BG 1 CC
20080222 MT 1 SC 4 WC
20080222 Mi 2 MS 5 CC
20080222 NH 2 BC 0 HE
20080222 NO 4 NM 6 CC
20080222 Ni 3 AH 0 CH
20080222 OS 3 Nt 1 CC
20080222 Pv 0 Mr 2 HE
20080222 RT 3 Mh 3 AH
20080222 SH 1 HC 3 AH
20080222 SL 2 RP 4 EC
20080222 Vt 3 ML 2 HE
20080222 WM 0 Mm 2 CC
20080222 Wi 2 Mn 4 WC
20080222 Ya 1 Ha 6 EC
20080223 AA 1 DU 3 WC
20080223 AF 4 Ca 3 AH
20080223 Ak 3 LS 5 CC
20080223 Ar 6 By 3 AH
20080223 BC 1 NH 5 HE
20080223 BS 1 ND 5 NC
20080223 Bn 1 Ha 2 EC
20080223 CC 4 MD 0 WC
20080223 Ck 3 RP 1 EC
20080223 Cr 1 Pn 2 EC
20080223 Ct 4 AI 2 AH
20080223 FS 1 BG 2 CC
20080223 HC 0 SH 4 AH
20080223 MA 2 Me 3 HE
20080223 MS 2 Mi 5 cc
20080223 MT 0 SC 3 WC
20080223 Mr 3 Pv 2 HE
20080223 NE 2 BU 3 HE
20080223 NO 3 NM 4 CC
20080223 Ni 3 AH 4 CH
20080223 OS 2 Nt 2 CC
20080223 RT 4 Mh 2 AH
20080223 SL 1 Un 3 EC
20080223 Vt 1 ML 0 HE
20080223 WM 1 Mm 8 CC
20080223 Wi 4 Mn 4 WC
20080223 Ya 2 Da 7 EC
20080224 BS 0 ND 1 NC
20080224 Cg 4 Qn 3 EC
20080224 MA 4 Me 5 HE
20080226 Mm 2 OS 1 CC
20080226 NO 4 Mk 2 NC
20080228 NM 2 LS 3 CC
20080229 AI 2 AF 2 AH
20080229 Ar 6 SH 1 AH
20080229 BG 3 MS 6 CC
20080229 By 2 RT 5 AH
20080229 Ct 3 HC 0 AH
20080229 DU 1 MT 0 WC
20080229 Da 0 Cr 6 EC
20080229 FS 3 Mi 5 CC
20080229 Ha 3 Cg 3 EC
20080229 MA 0 BU 3 HE
20080229 Me 0 Vt 2 HE
20080229 Mh 3 Ca 5 AH
20080229 Mk 2 CC 5 WC
20080229 Mn 2 AA 2 WC
20080229 Mr 1 NH 2 HE
20080229 NE 4 ML 5 HE
20080229 Nt 0 WM 3 CC
20080229 OS 3 Mm 4 CC
20080229 Pn 3 Ck 4 EC
20080229 Pv 3 BC 2 HE
20080229 Qn 1 SL 4 EC
20080229 RM 3 Ni 6 CH
20080229 RP 2 Bn 1 EC
20080229 Un 2 Ya 1 EC
20080229 WS 5 BS 7 CH
20080229 Wi 2 SC 1 WC
20080301 AI 0 AF 5 AH
20080301 BC 2 Pv 2 HE
20080301 BU 1 MA 5 HE
20080301 By 2 RT 5 AH
20080301 Ca 5 Mh 5 AH
20080301 DU 1 MT 2 WC
20080301 Da 5 Cg 2 EC
20080301 HC 2 Ct 4 AH
20080301 Ha 3 Cr 1 EC
20080301 LS 2 NM 2 CC
20080301 ML 3 NE 2 HE
20080301 MS 4 BG 0 CC
20080301 Me 3 Vt 0 HE
20080301 Mi 3 FS 4 CC
20080301 Mk 3 CC 2 WC
20080301 Mn 4 AA 1 WC
20080301 ND 2 MD 0 WC
20080301 NH 1 Mr 1 HE
20080301 Pn 2 SL 3 EC
20080301 Qn 0 Ck 8 EC
20080301 RM 1 Ni 7 CH
20080301 RP 0 Ya 3 EC
20080301 SH 2 Ar 3 AH
20080301 Un 0 Bn 2 EC
20080301 WM 1 Nt 3 CC
20080301 WS 3 BS 5 CH
20080301 Wi 2 SC 3 WC
20080302 ND 2 MD 1 WC
20080306 Ak 3 NO 4 NC
20080306 BU 6 Pv 0 HE
20080307 AH 3 RM 5 CH
20080307 AI 0 Ar 4 NC
20080307 Bn 6 Qn 7 NC
20080307 By 2 AF 9 NC
20080307 CC 5 DU 2 WC
20080307 Ca 1 Mh 4 NC
20080307 Ct 5 SH 6 NC
20080307 Da 2 Cr 3 NC
20080307 HC 4 RT 5 NC
20080307 LS 3 BG 4 NC
20080307 MD 1 Mn 4 WC
20080307 ML 1 Me 4 HE
20080307 MT 2 Mk 5 WC
20080307 Mr 2 MA 5 HE
20080307 NE 3 BC 2 HE
20080307 Ni 2 WS 3 CH
20080307 OS 4 NM 3 NC
20080307 Pv 0 BU 2 HE
20080307 RP 2 Ya 3 NC
20080307 SC 1 ND 1 WC
20080307 SL 5 Cg 2 NC
20080307 Vt 1 NH 3 HE
20080307 WM 3 FS 4 NC
20080308 AH 2 RM 2 CH
20080308 AI 2 Ar 5 NC
20080308 Ak 5 NO 3 NC
20080308 BC 4 NE 1 HE
20080308 Bn 1 Qn 7 NC
20080308 By 1 AF 3 NC
20080308 Ca 1 Mh 2 NC
20080308 Ct 3 SH 2 NC
20080308 DU 1 CC 3 WC
20080308 Da 5 Cr 3 NC
20080308 HC 4 RT 5 NC
20080308 LS 6 BG 1 NC
20080308 MA 4 Mr 2 HE
20080308 MD 3 Mn 2 WC
20080308 ML 1 Me 2 HE
20080308 MT 3 Mk 2 WC
20080308 Ni 7 WS 3 CH
20080308 OS 2 NM 4 NC
20080308 RP 2 Ya 3 NC
20080308 SC 2 ND 2 WC
20080308 SL 2 Cg 3 NC
20080308 Vt 4 NH 3 HE
20080308 WM 3 FS 6 NC
20080309 Ak 1 NO 2 NC
20080309 Ct 1 SH 4 NC
20080309 Da 0 Cr 6 NC
20080309 LS 3 BG 4 NC
20080309 OS 1 NM 6 NC
20080309 SL 1 Cg 3 NC
20080314 AA 1 CC 4 NC
20080314 AH 0 WS 4 nc
20080314 BG 1 Mm 4 NC
20080314 Cg 0 Ck 1 NC
20080314 Cr 3 Un 2 NC
20080314 FS 2 Nt 1 NC
20080314 MA 1 NH 4 NC
20080314 MD 3 DU 6 NC
20080314 ML 3 BU 5 NC
20080314 MT 0 ND 4 NC
20080314 Mh 4 SH 1 nc
20080314 Mn 0 Mk 1 NC
20080314 NE 0 Vt 1 NC
20080314 NM 1 MS 5 NC
20080314 NO 1 Mi 10 NC
20080314 Pv 1 BC 5 NC
20080314 Qn 0 Ha 11 NC
20080314 Wi 0 SC 3 NC
20080314 Ya 0 Pn 3 NC
20080315 AA 2 CC 3 NC
20080315 AF 5 RT 0 nc
20080315 BG 2 Mm 4 NC
20080315 Cg 4 Ck 3 NC
20080315 Cr 3 Un 2 NC
20080315 FS 3 Nt 6 NC
20080315 MA 2 NH 7 NC
20080315 MD 0 DU 1 NC
20080315 ML 4 BU 1 NC
20080315 MT 3 ND 2 NC
20080315 Mh 4 Ar 2 nc
20080315 Mn 2 Mk 1 NC
20080315 NE 2 Vt 1 NC
20080315 NM 2 MS 1 NC
20080315 NO 1 Mi 2 NC
20080315 Pv 1 BC 5 NC
20080315 Qn 7 Ha 4 NC
20080315 RM 3 Ni 6 NC
20080315 WS 1 BS 4 nc
20080315 Wi 3 SC 4 NC
20080315 Ya 4 Pn 3 NC
20080316 Cg 3 Ck 2 NC
20080316 FS 1 Nt 2 NC
20080316 ML 2 BU 4 NC
20080316 MT 1 ND 2 NC
20080316 Mh 4 AF 5 nc
20080316 Mn 3 Mk 2 NC
20080316 NE 1 Vt 4 NC
20080316 NM 3 MS 2 NC
20080316 Ni 3 BS 2 nc
20080316 Qn 1 Ha 3 NC
20080316 Ya 0 Pn 4 NC
20080320 Mn 3 SC 2 nc
20080321 BC 5 NH 4 nc
20080321 Cg 0 Pn 3 nc
20080321 Cr 1 Ha 3 nc
20080321 DU 3 ND 1 nc
20080321 Mn 2 CC 1 nc
20080321 NM 4 Mi 6 nc
20080321 Nt 1 Mm 2 nc
20080321 Vt 3 BU 1 nc
20080322 BC 4 Vt 0 nc
20080322 Cg 2 Cr 4 nc
20080322 Ha 1 Pn 4 nc
20080322 Mm 1 Mi 2 nc
20080322 Mn 1 DU 2 nc
20080322 ND 4 CC 2 nc
20080322 NM 2 Nt 1 nc
20080328 Ck 2 SC 1 nc
20080328 Ni 1 Mi 5 nc
20080328 Nt 7 NH 3 nc
20080328 MS 3 CC 1 nc
20080329 Pn 1 ND 5 nc
20080329 Wi 6 DU 2 nc
20080329 AF 2 Mm 3 nc
20080329 Mn 2 BC 5 nc
20080329 Ck 0 Mi 2 nc
20080329 Nt 3 MS 1 nc
20080330 BC 4 Mm 3 nc
20080330 Wi 2 ND 3 nc
20080410 BC 6 ND 1 nc
20080410 Nt 5 Mi 4 nc
20080412 Nt 1 BC 4 nc
